<svg xmlns="http://www.w3.org/2000/svg" xmlns:xlink="http://www.w3.org/1999/xlink" width="95.129" height="115" viewBox="0 0 95.129 115">
  <defs>
    <clipPath id="clip-path">
      <path id="Path_13" data-name="Path 13" d="M0-512H95.129v115H0Z" transform="translate(0 512)" fill="none"/>
    </clipPath>
  </defs>
  <g id="Group_18" data-name="Group 18" clip-path="url(#clip-path)">
    <g id="Group_11" data-name="Group 11" transform="translate(31.793 11.922)">
      <path id="Path_5" data-name="Path 5" d="M-20.15-19.721a2.113,2.113,0,0,1,2.111,2.111A2.113,2.113,0,0,1-20.15-15.5a2.113,2.113,0,0,1-2.111-2.111,2.113,2.113,0,0,1,2.111-2.111m0,7.948a5.843,5.843,0,0,0,5.837-5.837,5.846,5.846,0,0,0-3.974-5.53v-.431a1.863,1.863,0,0,0-1.863-1.863,1.863,1.863,0,0,0-1.863,1.863v.431a5.846,5.846,0,0,0-3.974,5.53,5.843,5.843,0,0,0,5.837,5.837" transform="translate(25.987 25.434)" fill="#41c1d6"/>
    </g>
    <g id="Group_12" data-name="Group 12" transform="translate(11.922 11.922)">
      <path id="Path_6" data-name="Path 6" d="M-20.15-19.721a2.113,2.113,0,0,1,2.111,2.111A2.113,2.113,0,0,1-20.15-15.5a2.113,2.113,0,0,1-2.111-2.111,2.113,2.113,0,0,1,2.111-2.111m0,7.948a5.843,5.843,0,0,0,5.837-5.837,5.846,5.846,0,0,0-3.974-5.53v-.431a1.863,1.863,0,0,0-1.863-1.863,1.863,1.863,0,0,0-1.863,1.863v.431a5.846,5.846,0,0,0-3.974,5.53,5.843,5.843,0,0,0,5.837,5.837" transform="translate(25.987 25.434)" fill="#41c1d6"/>
    </g>
    <g id="Group_13" data-name="Group 13" transform="translate(71.533 11.922)">
      <path id="Path_7" data-name="Path 7" d="M-20.15-19.721a2.113,2.113,0,0,1,2.111,2.111A2.113,2.113,0,0,1-20.15-15.5a2.113,2.113,0,0,1-2.111-2.111,2.113,2.113,0,0,1,2.111-2.111m0,7.948a5.843,5.843,0,0,0,5.837-5.837,5.846,5.846,0,0,0-3.974-5.53v-.431a1.863,1.863,0,0,0-1.863-1.863,1.863,1.863,0,0,0-1.863,1.863v.431a5.846,5.846,0,0,0-3.974,5.53,5.843,5.843,0,0,0,5.837,5.837" transform="translate(25.987 25.434)" fill="#41c1d6"/>
    </g>
    <g id="Group_14" data-name="Group 14" transform="translate(51.663 11.922)">
      <path id="Path_8" data-name="Path 8" d="M-20.15-19.721a2.113,2.113,0,0,1,2.111,2.111A2.113,2.113,0,0,1-20.15-15.5a2.113,2.113,0,0,1-2.111-2.111,2.113,2.113,0,0,1,2.111-2.111m0,7.948a5.843,5.843,0,0,0,5.837-5.837,5.846,5.846,0,0,0-3.974-5.53v-.431a1.863,1.863,0,0,0-1.863-1.863,1.863,1.863,0,0,0-1.863,1.863v.431a5.846,5.846,0,0,0-3.974,5.53,5.843,5.843,0,0,0,5.837,5.837" transform="translate(25.987 25.434)" fill="#41c1d6"/>
    </g>
    <g id="Group_15" data-name="Group 15" transform="translate(15.896 45.702)">
      <path id="Path_9" data-name="Path 9" d="M-212.219,0H-271.83a1.863,1.863,0,0,0-1.863,1.863,1.863,1.863,0,0,0,1.863,1.863h59.611a1.863,1.863,0,0,0,1.863-1.863A1.863,1.863,0,0,0-212.219,0" transform="translate(273.693)" fill="#41c1d6"/>
    </g>
    <g id="Group_16" data-name="Group 16" transform="translate(7.948 37.754)">
      <path id="Path_10" data-name="Path 10" d="M-260.665-205.359a.124.124,0,0,1-.124.124h-71.533a.124.124,0,0,1-.124-.124V-261a.124.124,0,0,1,.124-.124h71.533a.124.124,0,0,1,.124.124Zm-.124-59.487h-71.533a3.854,3.854,0,0,0-3.85,3.85v55.637a3.854,3.854,0,0,0,3.85,3.85h71.533a3.854,3.854,0,0,0,3.85-3.85V-261a3.854,3.854,0,0,0-3.85-3.85" transform="translate(336.173 264.846)" fill="#41c1d6"/>
    </g>
    <path id="Path_11" data-name="Path 11" d="M130.383-237.374H74.5v-32.041h55.886Zm1.863-35.767H72.635a1.863,1.863,0,0,0-1.863,1.863v35.767a1.863,1.863,0,0,0,1.863,1.863h59.611a1.863,1.863,0,0,0,1.863-1.863v-35.767a1.863,1.863,0,0,0-1.863-1.863" transform="translate(-54.876 326.791)" fill="#41c1d6"/>
    <g id="Group_17" data-name="Group 17" transform="translate(0 0)">
      <path id="Path_12" data-name="Path 12" d="M-315.113-384.138h-3.974a.124.124,0,0,1-.124-.124v-3.974a1.863,1.863,0,0,0-1.863-1.863h-75.508a1.863,1.863,0,0,0-1.863,1.863v3.974a.124.124,0,0,1-.124.124h-3.974a.124.124,0,0,1-.124-.124v-77.619h87.678v77.619a.124.124,0,0,1-.124.124m-87.43-101.587h87.43a.124.124,0,0,1,.124.124v19.995h-87.678V-485.6a.124.124,0,0,1,.124-.124m7.824-5.837a.124.124,0,0,1,.124-.124h27.819a.124.124,0,0,1,.124.124v2.111h-28.067Zm43.715,0a.124.124,0,0,1,.124-.124h27.818a.124.124,0,0,1,.124.124v2.111H-351Zm35.891,2.111h-4.1v-2.111a3.854,3.854,0,0,0-3.85-3.85H-350.88a3.854,3.854,0,0,0-3.85,3.85v2.111h-8.2v-2.111a3.854,3.854,0,0,0-3.85-3.85h-27.819a3.854,3.854,0,0,0-3.85,3.85v2.111h-4.1a3.854,3.854,0,0,0-3.85,3.85v101.339a3.854,3.854,0,0,0,3.85,3.85h3.974a3.854,3.854,0,0,0,3.85-3.85v-2.111h71.782v2.111a3.854,3.854,0,0,0,3.85,3.85h3.974a3.854,3.854,0,0,0,3.85-3.85V-485.6a3.854,3.854,0,0,0-3.85-3.85" transform="translate(406.393 495.412)" fill="#41c1d6"/>
    </g>
  </g>
</svg>
